-- Merging decision tree log ---
manifest
ADDED from /home/cdrive/BAZZARBIT/BAZZARBIT Client wise Code/Smart Kart/libraries/simple-crop-image-lib/AndroidManifest.xml:2:1-8:12
INJECTED from /home/cdrive/BAZZARBIT/BAZZARBIT Client wise Code/Smart Kart/libraries/simple-crop-image-lib/AndroidManifest.xml:2:1-8:12
INJECTED from /home/cdrive/BAZZARBIT/BAZZARBIT Client wise Code/Smart Kart/libraries/simple-crop-image-lib/AndroidManifest.xml:2:1-8:12
INJECTED from /home/cdrive/BAZZARBIT/BAZZARBIT Client wise Code/Smart Kart/libraries/simple-crop-image-lib/AndroidManifest.xml:2:1-8:12
INJECTED from /home/cdrive/BAZZARBIT/BAZZARBIT Client wise Code/Smart Kart/libraries/simple-crop-image-lib/AndroidManifest.xml:2:1-8:12
INJECTED from /home/cdrive/BAZZARBIT/BAZZARBIT Client wise Code/Smart Kart/libraries/simple-crop-image-lib/AndroidManifest.xml:2:1-8:12
INJECTED from /home/cdrive/BAZZARBIT/BAZZARBIT Client wise Code/Smart Kart/libraries/simple-crop-image-lib/AndroidManifest.xml:2:1-8:12
	package
		ADDED from /home/cdrive/BAZZARBIT/BAZZARBIT Client wise Code/Smart Kart/libraries/simple-crop-image-lib/AndroidManifest.xml:3:11-57
		INJECTED from /home/cdrive/BAZZARBIT/BAZZARBIT Client wise Code/Smart Kart/libraries/simple-crop-image-lib/AndroidManifest.xml
		INJECTED from /home/cdrive/BAZZARBIT/BAZZARBIT Client wise Code/Smart Kart/libraries/simple-crop-image-lib/AndroidManifest.xml
	android:versionName
		ADDED from /home/cdrive/BAZZARBIT/BAZZARBIT Client wise Code/Smart Kart/libraries/simple-crop-image-lib/AndroidManifest.xml:5:11-36
		INJECTED from /home/cdrive/BAZZARBIT/BAZZARBIT Client wise Code/Smart Kart/libraries/simple-crop-image-lib/AndroidManifest.xml
		INJECTED from /home/cdrive/BAZZARBIT/BAZZARBIT Client wise Code/Smart Kart/libraries/simple-crop-image-lib/AndroidManifest.xml
	xmlns:android
		ADDED from /home/cdrive/BAZZARBIT/BAZZARBIT Client wise Code/Smart Kart/libraries/simple-crop-image-lib/AndroidManifest.xml:2:11-69
	android:versionCode
		ADDED from /home/cdrive/BAZZARBIT/BAZZARBIT Client wise Code/Smart Kart/libraries/simple-crop-image-lib/AndroidManifest.xml:4:11-34
		INJECTED from /home/cdrive/BAZZARBIT/BAZZARBIT Client wise Code/Smart Kart/libraries/simple-crop-image-lib/AndroidManifest.xml
		INJECTED from /home/cdrive/BAZZARBIT/BAZZARBIT Client wise Code/Smart Kart/libraries/simple-crop-image-lib/AndroidManifest.xml
uses-sdk
ADDED from /home/cdrive/BAZZARBIT/BAZZARBIT Client wise Code/Smart Kart/libraries/simple-crop-image-lib/AndroidManifest.xml:7:5-47
INJECTED from /home/cdrive/BAZZARBIT/BAZZARBIT Client wise Code/Smart Kart/libraries/simple-crop-image-lib/AndroidManifest.xml:7:5-47
INJECTED from /home/cdrive/BAZZARBIT/BAZZARBIT Client wise Code/Smart Kart/libraries/simple-crop-image-lib/AndroidManifest.xml:7:5-47
	android:targetSdkVersion
		ADDED from /home/cdrive/BAZZARBIT/BAZZARBIT Client wise Code/Smart Kart/libraries/simple-crop-image-lib/AndroidManifest.xml:7:15-44
	android:minSdkVersion
		INJECTED from /home/cdrive/BAZZARBIT/BAZZARBIT Client wise Code/Smart Kart/libraries/simple-crop-image-lib/AndroidManifest.xml
		ADDED from /home/cdrive/BAZZARBIT/BAZZARBIT Client wise Code/Smart Kart/libraries/simple-crop-image-lib/AndroidManifest.xml:7:5-47
		INJECTED from /home/cdrive/BAZZARBIT/BAZZARBIT Client wise Code/Smart Kart/libraries/simple-crop-image-lib/AndroidManifest.xml
